name,ip-address,color,tags
CheckMatesLive_CSV_Host1,10.1.1.1,blue,DEMO
CheckMatesLive_CSV_Host2,10.2.1.1,cyan,DEMO
CheckMatesLive_CSV_Host3,10.3.1.1,khaki,DEMO
CheckMatesLive_CSV_Host4,10.4.1.1,orchid,DEMO
CheckMatesLive_CSV_Host5,10.5.1.1,pink,DEMO
CheckMatesLive_CSV_Host6,10.6.1.1,dark blue,DEMO
CheckMatesLive_CSV_Host7,10.7.1.1,gold,DEMO
CheckMatesLive_CSV_Host8,10.8.1.1,lemon chiffon,DEMO
CheckMatesLive_CSV_Host9,10.9.1.1,purple,DEMO
CheckMatesLive_CSV_Host10,10.10.1.1,orange,DEMO 
